[{"rname":"รักษาพยาบาล","rvalue":"1","rfile":"suboption1.txt"},
{"rname":"ของขวัญสมรส","rvalue":"2","rfile":""},
{"rname":"ทุนการศึกษาบุตรพนักงาน","rvalue":"3","rfile":""},
{"rname":"ของขวัญการมีบุตร","rvalue":"4","rfile":""},
{"rname":"เงินช่วยเหลือพิธีศพ","rvalue":"5","rfile":"suboption2.txt"},
{"rname":"ค่าซ่อมรถ/ประกันรถยนต์","rvalue":"6","rfile":""},
{"rname":"ทุนการศึกษาภาษาอังกฤษ","rvalue":"7","rfile":""}]